<svg xmlns="http://www.w3.org/2000/svg" version="1.1" width="1100" height="700">
<rect x="0" y="0" width="1000" height="600" fill="blue" style="stroke:pink;stroke-width:1;fill-opacity:0.1;stroke-opacity:0.9"/>
<rect x="0" y="0" width="121" height="600" fill="blue" style="stroke:pink;stroke-width:1;fill-opacity:0.1;stroke-opacity:0.9"/>
<rect x="0" y="0" width="121" height="521" fill="blue" style="stroke:pink;stroke-width:1;fill-opacity:0.1;stroke-opacity:0.9"/>
<rect x="0" y="0" width="121" height="398" fill="blue" style="stroke:pink;stroke-width:1;fill-opacity:0.1;stroke-opacity:0.9"/>
<rect x="0" y="0" width="121" height="159" fill="blue" style="stroke:pink;stroke-width:1;fill-opacity:0.1;stroke-opacity:0.9"/>
<rect x="0" y="0" width="121" height="134" fill="blue" style="stroke:pink;stroke-width:1;fill-opacity:0.1;stroke-opacity:0.9"/>
<rect x="0" y="0" width="121" height="73" fill="blue" style="stroke:pink;stroke-width:1;fill-opacity:0.1;stroke-opacity:0.9"/>
<rect x="0" y="73" width="121" height="61" fill="blue" style="stroke:pink;stroke-width:1;fill-opacity:0.1;stroke-opacity:0.9"/>
<rect x="55" y="68" width="15" height="10" fill="blue" style="fill-opacity:0.5;stroke-opacity:0.9"/>
<rect x="0" y="134" width="121" height="25" fill="blue" style="stroke:pink;stroke-width:1;fill-opacity:0.1;stroke-opacity:0.9"/>
<rect x="55" y="129" width="15" height="10" fill="blue" style="fill-opacity:0.5;stroke-opacity:0.9"/>
<rect x="0" y="159" width="121" height="239" fill="blue" style="stroke:pink;stroke-width:1;fill-opacity:0.1;stroke-opacity:0.9"/>
<rect x="0" y="159" width="121" height="194" fill="blue" style="stroke:pink;stroke-width:1;fill-opacity:0.1;stroke-opacity:0.9"/>
<rect x="0" y="159" width="121" height="135" fill="blue" style="stroke:pink;stroke-width:1;fill-opacity:0.1;stroke-opacity:0.9"/>
<rect x="0" y="159" width="121" height="116" fill="blue" style="stroke:pink;stroke-width:1;fill-opacity:0.1;stroke-opacity:0.9"/>
<rect x="0" y="159" width="98" height="116" fill="blue" style="stroke:pink;stroke-width:1;fill-opacity:0.1;stroke-opacity:0.9"/>
<rect x="0" y="159" width="98" height="41" fill="blue" style="stroke:pink;stroke-width:1;fill-opacity:0.1;stroke-opacity:0.9"/>
<rect x="0" y="200" width="98" height="75" fill="blue" style="stroke:pink;stroke-width:1;fill-opacity:0.1;stroke-opacity:0.9"/>
<rect x="44" y="195" width="15" height="10" fill="blue" style="fill-opacity:0.5;stroke-opacity:0.9"/>
<rect x="98" y="159" width="23" height="116" fill="blue" style="stroke:pink;stroke-width:1;fill-opacity:0.1;stroke-opacity:0.9"/>
<rect x="93" y="212" width="10" height="15" fill="blue" style="fill-opacity:0.5;stroke-opacity:0.9"/>
<rect x="0" y="275" width="121" height="19" fill="blue" style="stroke:pink;stroke-width:1;fill-opacity:0.1;stroke-opacity:0.9"/>
<rect x="55" y="270" width="15" height="10" fill="blue" style="fill-opacity:0.5;stroke-opacity:0.9"/>
<rect x="0" y="294" width="121" height="59" fill="blue" style="stroke:pink;stroke-width:1;fill-opacity:0.1;stroke-opacity:0.9"/>
<rect x="55" y="289" width="15" height="10" fill="blue" style="fill-opacity:0.5;stroke-opacity:0.9"/>
<rect x="0" y="353" width="121" height="45" fill="blue" style="stroke:pink;stroke-width:1;fill-opacity:0.1;stroke-opacity:0.9"/>
<rect x="55" y="348" width="15" height="10" fill="blue" style="fill-opacity:0.5;stroke-opacity:0.9"/>
<rect x="55" y="154" width="15" height="10" fill="blue" style="fill-opacity:0.5;stroke-opacity:0.9"/>
<rect x="0" y="398" width="121" height="123" fill="blue" style="stroke:pink;stroke-width:1;fill-opacity:0.1;stroke-opacity:0.9"/>
<rect x="0" y="398" width="121" height="53" fill="blue" style="stroke:pink;stroke-width:1;fill-opacity:0.1;stroke-opacity:0.9"/>
<rect x="0" y="451" width="121" height="70" fill="blue" style="stroke:pink;stroke-width:1;fill-opacity:0.1;stroke-opacity:0.9"/>
<rect x="55" y="446" width="15" height="10" fill="blue" style="fill-opacity:0.5;stroke-opacity:0.9"/>
<rect x="55" y="393" width="15" height="10" fill="blue" style="fill-opacity:0.5;stroke-opacity:0.9"/>
<rect x="0" y="521" width="121" height="79" fill="blue" style="stroke:pink;stroke-width:1;fill-opacity:0.1;stroke-opacity:0.9"/>
<rect x="55" y="516" width="15" height="10" fill="blue" style="fill-opacity:0.5;stroke-opacity:0.9"/>
<rect x="121" y="0" width="879" height="600" fill="blue" style="stroke:pink;stroke-width:1;fill-opacity:0.1;stroke-opacity:0.9"/>
<rect x="121" y="0" width="710" height="600" fill="blue" style="stroke:pink;stroke-width:1;fill-opacity:0.1;stroke-opacity:0.9"/>
<rect x="121" y="0" width="301" height="600" fill="blue" style="stroke:pink;stroke-width:1;fill-opacity:0.1;stroke-opacity:0.9"/>
<rect x="121" y="0" width="301" height="521" fill="blue" style="stroke:pink;stroke-width:1;fill-opacity:0.1;stroke-opacity:0.9"/>
<rect x="121" y="0" width="301" height="398" fill="blue" style="stroke:pink;stroke-width:1;fill-opacity:0.1;stroke-opacity:0.9"/>
<rect x="121" y="0" width="301" height="159" fill="blue" style="stroke:pink;stroke-width:1;fill-opacity:0.1;stroke-opacity:0.9"/>
<rect x="121" y="0" width="177" height="159" fill="blue" style="stroke:pink;stroke-width:1;fill-opacity:0.1;stroke-opacity:0.9"/>
<rect x="121" y="0" width="68" height="159" fill="blue" style="stroke:pink;stroke-width:1;fill-opacity:0.1;stroke-opacity:0.9"/>
<rect x="121" y="0" width="68" height="134" fill="blue" style="stroke:pink;stroke-width:1;fill-opacity:0.1;stroke-opacity:0.9"/>
<rect x="121" y="0" width="68" height="73" fill="blue" style="stroke:pink;stroke-width:1;fill-opacity:0.1;stroke-opacity:0.9"/>
<rect x="121" y="73" width="68" height="61" fill="blue" style="stroke:pink;stroke-width:1;fill-opacity:0.1;stroke-opacity:0.9"/>
<rect x="150" y="68" width="15" height="10" fill="blue" style="fill-opacity:0.5;stroke-opacity:0.9"/>
<rect x="121" y="134" width="68" height="25" fill="blue" style="stroke:pink;stroke-width:1;fill-opacity:0.1;stroke-opacity:0.9"/>
<rect x="150" y="129" width="15" height="10" fill="blue" style="fill-opacity:0.5;stroke-opacity:0.9"/>
<rect x="189" y="0" width="109" height="159" fill="blue" style="stroke:pink;stroke-width:1;fill-opacity:0.1;stroke-opacity:0.9"/>
<rect x="189" y="0" width="109" height="134" fill="blue" style="stroke:pink;stroke-width:1;fill-opacity:0.1;stroke-opacity:0.9"/>
<rect x="189" y="0" width="109" height="73" fill="blue" style="stroke:pink;stroke-width:1;fill-opacity:0.1;stroke-opacity:0.9"/>
<rect x="189" y="73" width="109" height="61" fill="blue" style="stroke:pink;stroke-width:1;fill-opacity:0.1;stroke-opacity:0.9"/>
<rect x="238" y="68" width="15" height="10" fill="blue" style="fill-opacity:0.5;stroke-opacity:0.9"/>
<rect x="189" y="134" width="109" height="25" fill="blue" style="stroke:pink;stroke-width:1;fill-opacity:0.1;stroke-opacity:0.9"/>
<rect x="238" y="129" width="15" height="10" fill="blue" style="fill-opacity:0.5;stroke-opacity:0.9"/>
<rect x="184" y="74" width="10" height="15" fill="blue" style="fill-opacity:0.5;stroke-opacity:0.9"/>
<rect x="298" y="0" width="124" height="159" fill="blue" style="stroke:pink;stroke-width:1;fill-opacity:0.1;stroke-opacity:0.9"/>
<rect x="298" y="0" width="124" height="134" fill="blue" style="stroke:pink;stroke-width:1;fill-opacity:0.1;stroke-opacity:0.9"/>
<rect x="298" y="0" width="124" height="73" fill="blue" style="stroke:pink;stroke-width:1;fill-opacity:0.1;stroke-opacity:0.9"/>
<rect x="298" y="73" width="124" height="61" fill="blue" style="stroke:pink;stroke-width:1;fill-opacity:0.1;stroke-opacity:0.9"/>
<rect x="355" y="68" width="15" height="10" fill="blue" style="fill-opacity:0.5;stroke-opacity:0.9"/>
<rect x="298" y="134" width="124" height="25" fill="blue" style="stroke:pink;stroke-width:1;fill-opacity:0.1;stroke-opacity:0.9"/>
<rect x="355" y="129" width="15" height="10" fill="blue" style="fill-opacity:0.5;stroke-opacity:0.9"/>
<rect x="293" y="74" width="10" height="15" fill="blue" style="fill-opacity:0.5;stroke-opacity:0.9"/>
<rect x="121" y="159" width="301" height="239" fill="blue" style="stroke:pink;stroke-width:1;fill-opacity:0.1;stroke-opacity:0.9"/>
<rect x="121" y="159" width="177" height="239" fill="blue" style="stroke:pink;stroke-width:1;fill-opacity:0.1;stroke-opacity:0.9"/>
<rect x="121" y="159" width="177" height="194" fill="blue" style="stroke:pink;stroke-width:1;fill-opacity:0.1;stroke-opacity:0.9"/>
<rect x="121" y="159" width="177" height="135" fill="blue" style="stroke:pink;stroke-width:1;fill-opacity:0.1;stroke-opacity:0.9"/>
<rect x="121" y="159" width="68" height="135" fill="blue" style="stroke:pink;stroke-width:1;fill-opacity:0.1;stroke-opacity:0.9"/>
<rect x="121" y="159" width="68" height="116" fill="blue" style="stroke:pink;stroke-width:1;fill-opacity:0.1;stroke-opacity:0.9"/>
<rect x="121" y="275" width="68" height="19" fill="blue" style="stroke:pink;stroke-width:1;fill-opacity:0.1;stroke-opacity:0.9"/>
<rect x="150" y="270" width="15" height="10" fill="blue" style="fill-opacity:0.5;stroke-opacity:0.9"/>
<rect x="189" y="159" width="109" height="135" fill="blue" style="stroke:pink;stroke-width:1;fill-opacity:0.1;stroke-opacity:0.9"/>
<rect x="189" y="159" width="109" height="116" fill="blue" style="stroke:pink;stroke-width:1;fill-opacity:0.1;stroke-opacity:0.9"/>
<rect x="189" y="159" width="109" height="41" fill="blue" style="stroke:pink;stroke-width:1;fill-opacity:0.1;stroke-opacity:0.9"/>
<rect x="189" y="200" width="109" height="75" fill="blue" style="stroke:pink;stroke-width:1;fill-opacity:0.1;stroke-opacity:0.9"/>
<rect x="238" y="195" width="15" height="10" fill="blue" style="fill-opacity:0.5;stroke-opacity:0.9"/>
<rect x="189" y="275" width="109" height="19" fill="blue" style="stroke:pink;stroke-width:1;fill-opacity:0.1;stroke-opacity:0.9"/>
<rect x="238" y="270" width="15" height="10" fill="blue" style="fill-opacity:0.5;stroke-opacity:0.9"/>
<rect x="184" y="221" width="10" height="15" fill="blue" style="fill-opacity:0.5;stroke-opacity:0.9"/>
<rect x="121" y="294" width="177" height="59" fill="blue" style="stroke:pink;stroke-width:1;fill-opacity:0.1;stroke-opacity:0.9"/>
<rect x="121" y="294" width="68" height="59" fill="blue" style="stroke:pink;stroke-width:1;fill-opacity:0.1;stroke-opacity:0.9"/>
<rect x="189" y="294" width="109" height="59" fill="blue" style="stroke:pink;stroke-width:1;fill-opacity:0.1;stroke-opacity:0.9"/>
<rect x="184" y="318" width="10" height="15" fill="blue" style="fill-opacity:0.5;stroke-opacity:0.9"/>
<rect x="204" y="289" width="15" height="10" fill="blue" style="fill-opacity:0.5;stroke-opacity:0.9"/>
<rect x="121" y="353" width="177" height="45" fill="blue" style="stroke:pink;stroke-width:1;fill-opacity:0.1;stroke-opacity:0.9"/>
<rect x="121" y="353" width="68" height="45" fill="blue" style="stroke:pink;stroke-width:1;fill-opacity:0.1;stroke-opacity:0.9"/>
<rect x="189" y="353" width="109" height="45" fill="blue" style="stroke:pink;stroke-width:1;fill-opacity:0.1;stroke-opacity:0.9"/>
<rect x="184" y="370" width="10" height="15" fill="blue" style="fill-opacity:0.5;stroke-opacity:0.9"/>
<rect x="204" y="348" width="15" height="10" fill="blue" style="fill-opacity:0.5;stroke-opacity:0.9"/>
<rect x="298" y="159" width="124" height="239" fill="blue" style="stroke:pink;stroke-width:1;fill-opacity:0.1;stroke-opacity:0.9"/>
<rect x="298" y="159" width="124" height="194" fill="blue" style="stroke:pink;stroke-width:1;fill-opacity:0.1;stroke-opacity:0.9"/>
<rect x="298" y="159" width="124" height="135" fill="blue" style="stroke:pink;stroke-width:1;fill-opacity:0.1;stroke-opacity:0.9"/>
<rect x="298" y="159" width="124" height="116" fill="blue" style="stroke:pink;stroke-width:1;fill-opacity:0.1;stroke-opacity:0.9"/>
<rect x="298" y="159" width="25" height="116" fill="blue" style="stroke:pink;stroke-width:1;fill-opacity:0.1;stroke-opacity:0.9"/>
<rect x="323" y="159" width="99" height="116" fill="blue" style="stroke:pink;stroke-width:1;fill-opacity:0.1;stroke-opacity:0.9"/>
<rect x="323" y="159" width="99" height="41" fill="blue" style="stroke:pink;stroke-width:1;fill-opacity:0.1;stroke-opacity:0.9"/>
<rect x="323" y="200" width="99" height="75" fill="blue" style="stroke:pink;stroke-width:1;fill-opacity:0.1;stroke-opacity:0.9"/>
<rect x="367" y="195" width="15" height="10" fill="blue" style="fill-opacity:0.5;stroke-opacity:0.9"/>
<rect x="318" y="212" width="10" height="15" fill="blue" style="fill-opacity:0.5;stroke-opacity:0.9"/>
<rect x="298" y="275" width="124" height="19" fill="blue" style="stroke:pink;stroke-width:1;fill-opacity:0.1;stroke-opacity:0.9"/>
<rect x="355" y="270" width="15" height="10" fill="blue" style="fill-opacity:0.5;stroke-opacity:0.9"/>
<rect x="298" y="294" width="124" height="59" fill="blue" style="stroke:pink;stroke-width:1;fill-opacity:0.1;stroke-opacity:0.9"/>
<rect x="355" y="289" width="15" height="10" fill="blue" style="fill-opacity:0.5;stroke-opacity:0.9"/>
<rect x="298" y="353" width="124" height="45" fill="blue" style="stroke:pink;stroke-width:1;fill-opacity:0.1;stroke-opacity:0.9"/>
<rect x="355" y="348" width="15" height="10" fill="blue" style="fill-opacity:0.5;stroke-opacity:0.9"/>
<rect x="293" y="273" width="10" height="15" fill="blue" style="fill-opacity:0.5;stroke-opacity:0.9"/>
<rect x="266" y="154" width="15" height="10" fill="blue" style="fill-opacity:0.5;stroke-opacity:0.9"/>
<rect x="121" y="398" width="301" height="123" fill="blue" style="stroke:pink;stroke-width:1;fill-opacity:0.1;stroke-opacity:0.9"/>
<rect x="121" y="398" width="177" height="123" fill="blue" style="stroke:pink;stroke-width:1;fill-opacity:0.1;stroke-opacity:0.9"/>
<rect x="121" y="398" width="68" height="123" fill="blue" style="stroke:pink;stroke-width:1;fill-opacity:0.1;stroke-opacity:0.9"/>
<rect x="189" y="398" width="109" height="123" fill="blue" style="stroke:pink;stroke-width:1;fill-opacity:0.1;stroke-opacity:0.9"/>
<rect x="189" y="398" width="109" height="53" fill="blue" style="stroke:pink;stroke-width:1;fill-opacity:0.1;stroke-opacity:0.9"/>
<rect x="189" y="451" width="109" height="70" fill="blue" style="stroke:pink;stroke-width:1;fill-opacity:0.1;stroke-opacity:0.9"/>
<rect x="238" y="446" width="15" height="10" fill="blue" style="fill-opacity:0.5;stroke-opacity:0.9"/>
<rect x="184" y="454" width="10" height="15" fill="blue" style="fill-opacity:0.5;stroke-opacity:0.9"/>
<rect x="298" y="398" width="124" height="123" fill="blue" style="stroke:pink;stroke-width:1;fill-opacity:0.1;stroke-opacity:0.9"/>
<rect x="298" y="398" width="25" height="123" fill="blue" style="stroke:pink;stroke-width:1;fill-opacity:0.1;stroke-opacity:0.9"/>
<rect x="323" y="398" width="99" height="123" fill="blue" style="stroke:pink;stroke-width:1;fill-opacity:0.1;stroke-opacity:0.9"/>
<rect x="323" y="398" width="99" height="53" fill="blue" style="stroke:pink;stroke-width:1;fill-opacity:0.1;stroke-opacity:0.9"/>
<rect x="323" y="451" width="99" height="70" fill="blue" style="stroke:pink;stroke-width:1;fill-opacity:0.1;stroke-opacity:0.9"/>
<rect x="367" y="446" width="15" height="10" fill="blue" style="fill-opacity:0.5;stroke-opacity:0.9"/>
<rect x="318" y="454" width="10" height="15" fill="blue" style="fill-opacity:0.5;stroke-opacity:0.9"/>
<rect x="293" y="454" width="10" height="15" fill="blue" style="fill-opacity:0.5;stroke-opacity:0.9"/>
<rect x="266" y="393" width="15" height="10" fill="blue" style="fill-opacity:0.5;stroke-opacity:0.9"/>
<rect x="121" y="521" width="301" height="79" fill="blue" style="stroke:pink;stroke-width:1;fill-opacity:0.1;stroke-opacity:0.9"/>
<rect x="121" y="521" width="177" height="79" fill="blue" style="stroke:pink;stroke-width:1;fill-opacity:0.1;stroke-opacity:0.9"/>
<rect x="121" y="521" width="68" height="79" fill="blue" style="stroke:pink;stroke-width:1;fill-opacity:0.1;stroke-opacity:0.9"/>
<rect x="189" y="521" width="109" height="79" fill="blue" style="stroke:pink;stroke-width:1;fill-opacity:0.1;stroke-opacity:0.9"/>
<rect x="184" y="555" width="10" height="15" fill="blue" style="fill-opacity:0.5;stroke-opacity:0.9"/>
<rect x="298" y="521" width="124" height="79" fill="blue" style="stroke:pink;stroke-width:1;fill-opacity:0.1;stroke-opacity:0.9"/>
<rect x="298" y="521" width="25" height="79" fill="blue" style="stroke:pink;stroke-width:1;fill-opacity:0.1;stroke-opacity:0.9"/>
<rect x="323" y="521" width="99" height="79" fill="blue" style="stroke:pink;stroke-width:1;fill-opacity:0.1;stroke-opacity:0.9"/>
<rect x="318" y="555" width="10" height="15" fill="blue" style="fill-opacity:0.5;stroke-opacity:0.9"/>
<rect x="293" y="555" width="10" height="15" fill="blue" style="fill-opacity:0.5;stroke-opacity:0.9"/>
<rect x="266" y="516" width="15" height="10" fill="blue" style="fill-opacity:0.5;stroke-opacity:0.9"/>
<rect x="422" y="0" width="409" height="600" fill="blue" style="stroke:pink;stroke-width:1;fill-opacity:0.1;stroke-opacity:0.9"/>
<rect x="422" y="0" width="409" height="521" fill="blue" style="stroke:pink;stroke-width:1;fill-opacity:0.1;stroke-opacity:0.9"/>
<rect x="422" y="0" width="409" height="398" fill="blue" style="stroke:pink;stroke-width:1;fill-opacity:0.1;stroke-opacity:0.9"/>
<rect x="422" y="0" width="363" height="398" fill="blue" style="stroke:pink;stroke-width:1;fill-opacity:0.1;stroke-opacity:0.9"/>
<rect x="422" y="0" width="363" height="159" fill="blue" style="stroke:pink;stroke-width:1;fill-opacity:0.1;stroke-opacity:0.9"/>
<rect x="422" y="0" width="98" height="159" fill="blue" style="stroke:pink;stroke-width:1;fill-opacity:0.1;stroke-opacity:0.9"/>
<rect x="422" y="0" width="98" height="134" fill="blue" style="stroke:pink;stroke-width:1;fill-opacity:0.1;stroke-opacity:0.9"/>
<rect x="422" y="0" width="98" height="73" fill="blue" style="stroke:pink;stroke-width:1;fill-opacity:0.1;stroke-opacity:0.9"/>
<rect x="422" y="73" width="98" height="61" fill="blue" style="stroke:pink;stroke-width:1;fill-opacity:0.1;stroke-opacity:0.9"/>
<rect x="466" y="68" width="15" height="10" fill="blue" style="fill-opacity:0.5;stroke-opacity:0.9"/>
<rect x="422" y="134" width="98" height="25" fill="blue" style="stroke:pink;stroke-width:1;fill-opacity:0.1;stroke-opacity:0.9"/>
<rect x="466" y="129" width="15" height="10" fill="blue" style="fill-opacity:0.5;stroke-opacity:0.9"/>
<rect x="520" y="0" width="265" height="159" fill="blue" style="stroke:pink;stroke-width:1;fill-opacity:0.1;stroke-opacity:0.9"/>
<rect x="520" y="0" width="81" height="159" fill="blue" style="stroke:pink;stroke-width:1;fill-opacity:0.1;stroke-opacity:0.9"/>
<rect x="520" y="0" width="81" height="134" fill="blue" style="stroke:pink;stroke-width:1;fill-opacity:0.1;stroke-opacity:0.9"/>
<rect x="520" y="0" width="81" height="73" fill="blue" style="stroke:pink;stroke-width:1;fill-opacity:0.1;stroke-opacity:0.9"/>
<rect x="520" y="73" width="81" height="61" fill="blue" style="stroke:pink;stroke-width:1;fill-opacity:0.1;stroke-opacity:0.9"/>
<rect x="555" y="68" width="15" height="10" fill="blue" style="fill-opacity:0.5;stroke-opacity:0.9"/>
<rect x="520" y="134" width="81" height="25" fill="blue" style="stroke:pink;stroke-width:1;fill-opacity:0.1;stroke-opacity:0.9"/>
<rect x="555" y="129" width="15" height="10" fill="blue" style="fill-opacity:0.5;stroke-opacity:0.9"/>
<rect x="601" y="0" width="184" height="159" fill="blue" style="stroke:pink;stroke-width:1;fill-opacity:0.1;stroke-opacity:0.9"/>
<rect x="601" y="0" width="73" height="159" fill="blue" style="stroke:pink;stroke-width:1;fill-opacity:0.1;stroke-opacity:0.9"/>
<rect x="601" y="0" width="73" height="134" fill="blue" style="stroke:pink;stroke-width:1;fill-opacity:0.1;stroke-opacity:0.9"/>
<rect x="601" y="0" width="73" height="73" fill="blue" style="stroke:pink;stroke-width:1;fill-opacity:0.1;stroke-opacity:0.9"/>
<rect x="601" y="73" width="73" height="61" fill="blue" style="stroke:pink;stroke-width:1;fill-opacity:0.1;stroke-opacity:0.9"/>
<rect x="632" y="68" width="15" height="10" fill="blue" style="fill-opacity:0.5;stroke-opacity:0.9"/>
<rect x="601" y="134" width="73" height="25" fill="blue" style="stroke:pink;stroke-width:1;fill-opacity:0.1;stroke-opacity:0.9"/>
<rect x="632" y="129" width="15" height="10" fill="blue" style="fill-opacity:0.5;stroke-opacity:0.9"/>
<rect x="674" y="0" width="111" height="159" fill="blue" style="stroke:pink;stroke-width:1;fill-opacity:0.1;stroke-opacity:0.9"/>
<rect x="674" y="0" width="111" height="134" fill="blue" style="stroke:pink;stroke-width:1;fill-opacity:0.1;stroke-opacity:0.9"/>
<rect x="674" y="0" width="111" height="73" fill="blue" style="stroke:pink;stroke-width:1;fill-opacity:0.1;stroke-opacity:0.9"/>
<rect x="674" y="73" width="111" height="61" fill="blue" style="stroke:pink;stroke-width:1;fill-opacity:0.1;stroke-opacity:0.9"/>
<rect x="724" y="68" width="15" height="10" fill="blue" style="fill-opacity:0.5;stroke-opacity:0.9"/>
<rect x="674" y="134" width="111" height="25" fill="blue" style="stroke:pink;stroke-width:1;fill-opacity:0.1;stroke-opacity:0.9"/>
<rect x="724" y="129" width="15" height="10" fill="blue" style="fill-opacity:0.5;stroke-opacity:0.9"/>
<rect x="669" y="74" width="10" height="15" fill="blue" style="fill-opacity:0.5;stroke-opacity:0.9"/>
<rect x="596" y="74" width="10" height="15" fill="blue" style="fill-opacity:0.5;stroke-opacity:0.9"/>
<rect x="515" y="74" width="10" height="15" fill="blue" style="fill-opacity:0.5;stroke-opacity:0.9"/>
<rect x="422" y="159" width="363" height="239" fill="blue" style="stroke:pink;stroke-width:1;fill-opacity:0.1;stroke-opacity:0.9"/>
<rect x="422" y="159" width="98" height="239" fill="blue" style="stroke:pink;stroke-width:1;fill-opacity:0.1;stroke-opacity:0.9"/>
<rect x="422" y="159" width="98" height="194" fill="blue" style="stroke:pink;stroke-width:1;fill-opacity:0.1;stroke-opacity:0.9"/>
<rect x="422" y="159" width="98" height="135" fill="blue" style="stroke:pink;stroke-width:1;fill-opacity:0.1;stroke-opacity:0.9"/>
<rect x="422" y="159" width="98" height="116" fill="blue" style="stroke:pink;stroke-width:1;fill-opacity:0.1;stroke-opacity:0.9"/>
<rect x="422" y="159" width="98" height="41" fill="blue" style="stroke:pink;stroke-width:1;fill-opacity:0.1;stroke-opacity:0.9"/>
<rect x="422" y="200" width="98" height="75" fill="blue" style="stroke:pink;stroke-width:1;fill-opacity:0.1;stroke-opacity:0.9"/>
<rect x="466" y="195" width="15" height="10" fill="blue" style="fill-opacity:0.5;stroke-opacity:0.9"/>
<rect x="422" y="275" width="98" height="19" fill="blue" style="stroke:pink;stroke-width:1;fill-opacity:0.1;stroke-opacity:0.9"/>
<rect x="466" y="270" width="15" height="10" fill="blue" style="fill-opacity:0.5;stroke-opacity:0.9"/>
<rect x="422" y="294" width="98" height="59" fill="blue" style="stroke:pink;stroke-width:1;fill-opacity:0.1;stroke-opacity:0.9"/>
<rect x="466" y="289" width="15" height="10" fill="blue" style="fill-opacity:0.5;stroke-opacity:0.9"/>
<rect x="422" y="353" width="98" height="45" fill="blue" style="stroke:pink;stroke-width:1;fill-opacity:0.1;stroke-opacity:0.9"/>
<rect x="466" y="348" width="15" height="10" fill="blue" style="fill-opacity:0.5;stroke-opacity:0.9"/>
<rect x="520" y="159" width="265" height="239" fill="blue" style="stroke:pink;stroke-width:1;fill-opacity:0.1;stroke-opacity:0.9"/>
<rect x="520" y="159" width="81" height="239" fill="blue" style="stroke:pink;stroke-width:1;fill-opacity:0.1;stroke-opacity:0.9"/>
<rect x="520" y="159" width="81" height="194" fill="blue" style="stroke:pink;stroke-width:1;fill-opacity:0.1;stroke-opacity:0.9"/>
<rect x="520" y="159" width="81" height="135" fill="blue" style="stroke:pink;stroke-width:1;fill-opacity:0.1;stroke-opacity:0.9"/>
<rect x="520" y="159" width="81" height="116" fill="blue" style="stroke:pink;stroke-width:1;fill-opacity:0.1;stroke-opacity:0.9"/>
<rect x="520" y="275" width="81" height="19" fill="blue" style="stroke:pink;stroke-width:1;fill-opacity:0.1;stroke-opacity:0.9"/>
<rect x="555" y="270" width="15" height="10" fill="blue" style="fill-opacity:0.5;stroke-opacity:0.9"/>
<rect x="520" y="294" width="81" height="59" fill="blue" style="stroke:pink;stroke-width:1;fill-opacity:0.1;stroke-opacity:0.9"/>
<rect x="555" y="289" width="15" height="10" fill="blue" style="fill-opacity:0.5;stroke-opacity:0.9"/>
<rect x="520" y="353" width="81" height="45" fill="blue" style="stroke:pink;stroke-width:1;fill-opacity:0.1;stroke-opacity:0.9"/>
<rect x="555" y="348" width="15" height="10" fill="blue" style="fill-opacity:0.5;stroke-opacity:0.9"/>
<rect x="601" y="159" width="184" height="239" fill="blue" style="stroke:pink;stroke-width:1;fill-opacity:0.1;stroke-opacity:0.9"/>
<rect x="601" y="159" width="184" height="194" fill="blue" style="stroke:pink;stroke-width:1;fill-opacity:0.1;stroke-opacity:0.9"/>
<rect x="601" y="159" width="184" height="135" fill="blue" style="stroke:pink;stroke-width:1;fill-opacity:0.1;stroke-opacity:0.9"/>
<rect x="601" y="159" width="73" height="135" fill="blue" style="stroke:pink;stroke-width:1;fill-opacity:0.1;stroke-opacity:0.9"/>
<rect x="601" y="159" width="73" height="116" fill="blue" style="stroke:pink;stroke-width:1;fill-opacity:0.1;stroke-opacity:0.9"/>
<rect x="601" y="275" width="73" height="19" fill="blue" style="stroke:pink;stroke-width:1;fill-opacity:0.1;stroke-opacity:0.9"/>
<rect x="632" y="270" width="15" height="10" fill="blue" style="fill-opacity:0.5;stroke-opacity:0.9"/>
<rect x="674" y="159" width="111" height="135" fill="blue" style="stroke:pink;stroke-width:1;fill-opacity:0.1;stroke-opacity:0.9"/>
<rect x="674" y="159" width="111" height="116" fill="blue" style="stroke:pink;stroke-width:1;fill-opacity:0.1;stroke-opacity:0.9"/>
<rect x="674" y="159" width="111" height="41" fill="blue" style="stroke:pink;stroke-width:1;fill-opacity:0.1;stroke-opacity:0.9"/>
<rect x="674" y="200" width="111" height="75" fill="blue" style="stroke:pink;stroke-width:1;fill-opacity:0.1;stroke-opacity:0.9"/>
<rect x="724" y="195" width="15" height="10" fill="blue" style="fill-opacity:0.5;stroke-opacity:0.9"/>
<rect x="674" y="275" width="111" height="19" fill="blue" style="stroke:pink;stroke-width:1;fill-opacity:0.1;stroke-opacity:0.9"/>
<rect x="724" y="270" width="15" height="10" fill="blue" style="fill-opacity:0.5;stroke-opacity:0.9"/>
<rect x="669" y="221" width="10" height="15" fill="blue" style="fill-opacity:0.5;stroke-opacity:0.9"/>
<rect x="601" y="294" width="184" height="59" fill="blue" style="stroke:pink;stroke-width:1;fill-opacity:0.1;stroke-opacity:0.9"/>
<rect x="601" y="294" width="73" height="59" fill="blue" style="stroke:pink;stroke-width:1;fill-opacity:0.1;stroke-opacity:0.9"/>
<rect x="674" y="294" width="111" height="59" fill="blue" style="stroke:pink;stroke-width:1;fill-opacity:0.1;stroke-opacity:0.9"/>
<rect x="669" y="318" width="10" height="15" fill="blue" style="fill-opacity:0.5;stroke-opacity:0.9"/>
<rect x="688" y="289" width="15" height="10" fill="blue" style="fill-opacity:0.5;stroke-opacity:0.9"/>
<rect x="601" y="353" width="184" height="45" fill="blue" style="stroke:pink;stroke-width:1;fill-opacity:0.1;stroke-opacity:0.9"/>
<rect x="601" y="353" width="73" height="45" fill="blue" style="stroke:pink;stroke-width:1;fill-opacity:0.1;stroke-opacity:0.9"/>
<rect x="674" y="353" width="111" height="45" fill="blue" style="stroke:pink;stroke-width:1;fill-opacity:0.1;stroke-opacity:0.9"/>
<rect x="669" y="370" width="10" height="15" fill="blue" style="fill-opacity:0.5;stroke-opacity:0.9"/>
<rect x="688" y="348" width="15" height="10" fill="blue" style="fill-opacity:0.5;stroke-opacity:0.9"/>
<rect x="596" y="273" width="10" height="15" fill="blue" style="fill-opacity:0.5;stroke-opacity:0.9"/>
<rect x="515" y="273" width="10" height="15" fill="blue" style="fill-opacity:0.5;stroke-opacity:0.9"/>
<rect x="598" y="154" width="15" height="10" fill="blue" style="fill-opacity:0.5;stroke-opacity:0.9"/>
<rect x="785" y="0" width="46" height="398" fill="blue" style="stroke:pink;stroke-width:1;fill-opacity:0.1;stroke-opacity:0.9"/>
<rect x="785" y="0" width="46" height="159" fill="blue" style="stroke:pink;stroke-width:1;fill-opacity:0.1;stroke-opacity:0.9"/>
<rect x="785" y="0" width="46" height="134" fill="blue" style="stroke:pink;stroke-width:1;fill-opacity:0.1;stroke-opacity:0.9"/>
<rect x="785" y="134" width="46" height="25" fill="blue" style="stroke:pink;stroke-width:1;fill-opacity:0.1;stroke-opacity:0.9"/>
<rect x="803" y="129" width="15" height="10" fill="blue" style="fill-opacity:0.5;stroke-opacity:0.9"/>
<rect x="785" y="159" width="46" height="239" fill="blue" style="stroke:pink;stroke-width:1;fill-opacity:0.1;stroke-opacity:0.9"/>
<rect x="785" y="159" width="46" height="194" fill="blue" style="stroke:pink;stroke-width:1;fill-opacity:0.1;stroke-opacity:0.9"/>
<rect x="785" y="159" width="46" height="135" fill="blue" style="stroke:pink;stroke-width:1;fill-opacity:0.1;stroke-opacity:0.9"/>
<rect x="785" y="294" width="46" height="59" fill="blue" style="stroke:pink;stroke-width:1;fill-opacity:0.1;stroke-opacity:0.9"/>
<rect x="803" y="289" width="15" height="10" fill="blue" style="fill-opacity:0.5;stroke-opacity:0.9"/>
<rect x="785" y="353" width="46" height="45" fill="blue" style="stroke:pink;stroke-width:1;fill-opacity:0.1;stroke-opacity:0.9"/>
<rect x="803" y="348" width="15" height="10" fill="blue" style="fill-opacity:0.5;stroke-opacity:0.9"/>
<rect x="803" y="154" width="15" height="10" fill="blue" style="fill-opacity:0.5;stroke-opacity:0.9"/>
<rect x="780" y="194" width="10" height="15" fill="blue" style="fill-opacity:0.5;stroke-opacity:0.9"/>
<rect x="422" y="398" width="409" height="123" fill="blue" style="stroke:pink;stroke-width:1;fill-opacity:0.1;stroke-opacity:0.9"/>
<rect x="422" y="398" width="363" height="123" fill="blue" style="stroke:pink;stroke-width:1;fill-opacity:0.1;stroke-opacity:0.9"/>
<rect x="422" y="398" width="98" height="123" fill="blue" style="stroke:pink;stroke-width:1;fill-opacity:0.1;stroke-opacity:0.9"/>
<rect x="422" y="398" width="98" height="53" fill="blue" style="stroke:pink;stroke-width:1;fill-opacity:0.1;stroke-opacity:0.9"/>
<rect x="422" y="451" width="98" height="70" fill="blue" style="stroke:pink;stroke-width:1;fill-opacity:0.1;stroke-opacity:0.9"/>
<rect x="466" y="446" width="15" height="10" fill="blue" style="fill-opacity:0.5;stroke-opacity:0.9"/>
<rect x="520" y="398" width="265" height="123" fill="blue" style="stroke:pink;stroke-width:1;fill-opacity:0.1;stroke-opacity:0.9"/>
<rect x="520" y="398" width="81" height="123" fill="blue" style="stroke:pink;stroke-width:1;fill-opacity:0.1;stroke-opacity:0.9"/>
<rect x="520" y="398" width="81" height="53" fill="blue" style="stroke:pink;stroke-width:1;fill-opacity:0.1;stroke-opacity:0.9"/>
<rect x="520" y="451" width="81" height="70" fill="blue" style="stroke:pink;stroke-width:1;fill-opacity:0.1;stroke-opacity:0.9"/>
<rect x="555" y="446" width="15" height="10" fill="blue" style="fill-opacity:0.5;stroke-opacity:0.9"/>
<rect x="601" y="398" width="184" height="123" fill="blue" style="stroke:pink;stroke-width:1;fill-opacity:0.1;stroke-opacity:0.9"/>
<rect x="601" y="398" width="73" height="123" fill="blue" style="stroke:pink;stroke-width:1;fill-opacity:0.1;stroke-opacity:0.9"/>
<rect x="674" y="398" width="111" height="123" fill="blue" style="stroke:pink;stroke-width:1;fill-opacity:0.1;stroke-opacity:0.9"/>
<rect x="674" y="398" width="111" height="53" fill="blue" style="stroke:pink;stroke-width:1;fill-opacity:0.1;stroke-opacity:0.9"/>
<rect x="674" y="451" width="111" height="70" fill="blue" style="stroke:pink;stroke-width:1;fill-opacity:0.1;stroke-opacity:0.9"/>
<rect x="724" y="446" width="15" height="10" fill="blue" style="fill-opacity:0.5;stroke-opacity:0.9"/>
<rect x="669" y="454" width="10" height="15" fill="blue" style="fill-opacity:0.5;stroke-opacity:0.9"/>
<rect x="596" y="454" width="10" height="15" fill="blue" style="fill-opacity:0.5;stroke-opacity:0.9"/>
<rect x="515" y="454" width="10" height="15" fill="blue" style="fill-opacity:0.5;stroke-opacity:0.9"/>
<rect x="785" y="398" width="46" height="123" fill="blue" style="stroke:pink;stroke-width:1;fill-opacity:0.1;stroke-opacity:0.9"/>
<rect x="780" y="454" width="10" height="15" fill="blue" style="fill-opacity:0.5;stroke-opacity:0.9"/>
<rect x="621" y="393" width="15" height="10" fill="blue" style="fill-opacity:0.5;stroke-opacity:0.9"/>
<rect x="422" y="521" width="409" height="79" fill="blue" style="stroke:pink;stroke-width:1;fill-opacity:0.1;stroke-opacity:0.9"/>
<rect x="422" y="521" width="363" height="79" fill="blue" style="stroke:pink;stroke-width:1;fill-opacity:0.1;stroke-opacity:0.9"/>
<rect x="422" y="521" width="98" height="79" fill="blue" style="stroke:pink;stroke-width:1;fill-opacity:0.1;stroke-opacity:0.9"/>
<rect x="520" y="521" width="265" height="79" fill="blue" style="stroke:pink;stroke-width:1;fill-opacity:0.1;stroke-opacity:0.9"/>
<rect x="520" y="521" width="81" height="79" fill="blue" style="stroke:pink;stroke-width:1;fill-opacity:0.1;stroke-opacity:0.9"/>
<rect x="601" y="521" width="184" height="79" fill="blue" style="stroke:pink;stroke-width:1;fill-opacity:0.1;stroke-opacity:0.9"/>
<rect x="601" y="521" width="73" height="79" fill="blue" style="stroke:pink;stroke-width:1;fill-opacity:0.1;stroke-opacity:0.9"/>
<rect x="674" y="521" width="111" height="79" fill="blue" style="stroke:pink;stroke-width:1;fill-opacity:0.1;stroke-opacity:0.9"/>
<rect x="669" y="555" width="10" height="15" fill="blue" style="fill-opacity:0.5;stroke-opacity:0.9"/>
<rect x="596" y="555" width="10" height="15" fill="blue" style="fill-opacity:0.5;stroke-opacity:0.9"/>
<rect x="515" y="555" width="10" height="15" fill="blue" style="fill-opacity:0.5;stroke-opacity:0.9"/>
<rect x="785" y="521" width="46" height="79" fill="blue" style="stroke:pink;stroke-width:1;fill-opacity:0.1;stroke-opacity:0.9"/>
<rect x="780" y="555" width="10" height="15" fill="blue" style="fill-opacity:0.5;stroke-opacity:0.9"/>
<rect x="621" y="516" width="15" height="10" fill="blue" style="fill-opacity:0.5;stroke-opacity:0.9"/>
<rect x="417" y="295" width="10" height="15" fill="blue" style="fill-opacity:0.5;stroke-opacity:0.9"/>
<rect x="831" y="0" width="169" height="600" fill="blue" style="stroke:pink;stroke-width:1;fill-opacity:0.1;stroke-opacity:0.9"/>
<rect x="831" y="0" width="169" height="521" fill="blue" style="stroke:pink;stroke-width:1;fill-opacity:0.1;stroke-opacity:0.9"/>
<rect x="831" y="0" width="169" height="398" fill="blue" style="stroke:pink;stroke-width:1;fill-opacity:0.1;stroke-opacity:0.9"/>
<rect x="831" y="0" width="169" height="159" fill="blue" style="stroke:pink;stroke-width:1;fill-opacity:0.1;stroke-opacity:0.9"/>
<rect x="831" y="0" width="104" height="159" fill="blue" style="stroke:pink;stroke-width:1;fill-opacity:0.1;stroke-opacity:0.9"/>
<rect x="831" y="0" width="104" height="134" fill="blue" style="stroke:pink;stroke-width:1;fill-opacity:0.1;stroke-opacity:0.9"/>
<rect x="831" y="0" width="104" height="73" fill="blue" style="stroke:pink;stroke-width:1;fill-opacity:0.1;stroke-opacity:0.9"/>
<rect x="831" y="73" width="104" height="61" fill="blue" style="stroke:pink;stroke-width:1;fill-opacity:0.1;stroke-opacity:0.9"/>
<rect x="878" y="68" width="15" height="10" fill="blue" style="fill-opacity:0.5;stroke-opacity:0.9"/>
<rect x="831" y="134" width="104" height="25" fill="blue" style="stroke:pink;stroke-width:1;fill-opacity:0.1;stroke-opacity:0.9"/>
<rect x="878" y="129" width="15" height="10" fill="blue" style="fill-opacity:0.5;stroke-opacity:0.9"/>
<rect x="935" y="0" width="65" height="159" fill="blue" style="stroke:pink;stroke-width:1;fill-opacity:0.1;stroke-opacity:0.9"/>
<rect x="935" y="0" width="65" height="134" fill="blue" style="stroke:pink;stroke-width:1;fill-opacity:0.1;stroke-opacity:0.9"/>
<rect x="935" y="134" width="65" height="25" fill="blue" style="stroke:pink;stroke-width:1;fill-opacity:0.1;stroke-opacity:0.9"/>
<rect x="962" y="129" width="15" height="10" fill="blue" style="fill-opacity:0.5;stroke-opacity:0.9"/>
<rect x="930" y="74" width="10" height="15" fill="blue" style="fill-opacity:0.5;stroke-opacity:0.9"/>
<rect x="831" y="159" width="169" height="239" fill="blue" style="stroke:pink;stroke-width:1;fill-opacity:0.1;stroke-opacity:0.9"/>
<rect x="831" y="159" width="169" height="194" fill="blue" style="stroke:pink;stroke-width:1;fill-opacity:0.1;stroke-opacity:0.9"/>
<rect x="831" y="159" width="169" height="135" fill="blue" style="stroke:pink;stroke-width:1;fill-opacity:0.1;stroke-opacity:0.9"/>
<rect x="831" y="159" width="104" height="135" fill="blue" style="stroke:pink;stroke-width:1;fill-opacity:0.1;stroke-opacity:0.9"/>
<rect x="831" y="159" width="104" height="116" fill="blue" style="stroke:pink;stroke-width:1;fill-opacity:0.1;stroke-opacity:0.9"/>
<rect x="831" y="159" width="104" height="41" fill="blue" style="stroke:pink;stroke-width:1;fill-opacity:0.1;stroke-opacity:0.9"/>
<rect x="831" y="200" width="104" height="75" fill="blue" style="stroke:pink;stroke-width:1;fill-opacity:0.1;stroke-opacity:0.9"/>
<rect x="878" y="195" width="15" height="10" fill="blue" style="fill-opacity:0.5;stroke-opacity:0.9"/>
<rect x="831" y="275" width="104" height="19" fill="blue" style="stroke:pink;stroke-width:1;fill-opacity:0.1;stroke-opacity:0.9"/>
<rect x="878" y="270" width="15" height="10" fill="blue" style="fill-opacity:0.5;stroke-opacity:0.9"/>
<rect x="935" y="159" width="65" height="135" fill="blue" style="stroke:pink;stroke-width:1;fill-opacity:0.1;stroke-opacity:0.9"/>
<rect x="930" y="221" width="10" height="15" fill="blue" style="fill-opacity:0.5;stroke-opacity:0.9"/>
<rect x="831" y="294" width="169" height="59" fill="blue" style="stroke:pink;stroke-width:1;fill-opacity:0.1;stroke-opacity:0.9"/>
<rect x="831" y="294" width="104" height="59" fill="blue" style="stroke:pink;stroke-width:1;fill-opacity:0.1;stroke-opacity:0.9"/>
<rect x="935" y="294" width="65" height="59" fill="blue" style="stroke:pink;stroke-width:1;fill-opacity:0.1;stroke-opacity:0.9"/>
<rect x="930" y="318" width="10" height="15" fill="blue" style="fill-opacity:0.5;stroke-opacity:0.9"/>
<rect x="910" y="289" width="15" height="10" fill="blue" style="fill-opacity:0.5;stroke-opacity:0.9"/>
<rect x="831" y="353" width="169" height="45" fill="blue" style="stroke:pink;stroke-width:1;fill-opacity:0.1;stroke-opacity:0.9"/>
<rect x="831" y="353" width="104" height="45" fill="blue" style="stroke:pink;stroke-width:1;fill-opacity:0.1;stroke-opacity:0.9"/>
<rect x="935" y="353" width="65" height="45" fill="blue" style="stroke:pink;stroke-width:1;fill-opacity:0.1;stroke-opacity:0.9"/>
<rect x="930" y="370" width="10" height="15" fill="blue" style="fill-opacity:0.5;stroke-opacity:0.9"/>
<rect x="910" y="348" width="15" height="10" fill="blue" style="fill-opacity:0.5;stroke-opacity:0.9"/>
<rect x="910" y="154" width="15" height="10" fill="blue" style="fill-opacity:0.5;stroke-opacity:0.9"/>
<rect x="831" y="398" width="169" height="123" fill="blue" style="stroke:pink;stroke-width:1;fill-opacity:0.1;stroke-opacity:0.9"/>
<rect x="831" y="398" width="104" height="123" fill="blue" style="stroke:pink;stroke-width:1;fill-opacity:0.1;stroke-opacity:0.9"/>
<rect x="831" y="398" width="104" height="53" fill="blue" style="stroke:pink;stroke-width:1;fill-opacity:0.1;stroke-opacity:0.9"/>
<rect x="831" y="451" width="104" height="70" fill="blue" style="stroke:pink;stroke-width:1;fill-opacity:0.1;stroke-opacity:0.9"/>
<rect x="878" y="446" width="15" height="10" fill="blue" style="fill-opacity:0.5;stroke-opacity:0.9"/>
<rect x="935" y="398" width="65" height="123" fill="blue" style="stroke:pink;stroke-width:1;fill-opacity:0.1;stroke-opacity:0.9"/>
<rect x="930" y="454" width="10" height="15" fill="blue" style="fill-opacity:0.5;stroke-opacity:0.9"/>
<rect x="910" y="393" width="15" height="10" fill="blue" style="fill-opacity:0.5;stroke-opacity:0.9"/>
<rect x="831" y="521" width="169" height="79" fill="blue" style="stroke:pink;stroke-width:1;fill-opacity:0.1;stroke-opacity:0.9"/>
<rect x="831" y="521" width="104" height="79" fill="blue" style="stroke:pink;stroke-width:1;fill-opacity:0.1;stroke-opacity:0.9"/>
<rect x="935" y="521" width="65" height="79" fill="blue" style="stroke:pink;stroke-width:1;fill-opacity:0.1;stroke-opacity:0.9"/>
<rect x="930" y="555" width="10" height="15" fill="blue" style="fill-opacity:0.5;stroke-opacity:0.9"/>
<rect x="910" y="516" width="15" height="10" fill="blue" style="fill-opacity:0.5;stroke-opacity:0.9"/>
<rect x="826" y="295" width="10" height="15" fill="blue" style="fill-opacity:0.5;stroke-opacity:0.9"/>
<rect x="116" y="295" width="10" height="15" fill="blue" style="fill-opacity:0.5;stroke-opacity:0.9"/>
</svg>
